{
		"vase-bluewhite" : {
			"title" : "Blue and White Vase",
			"filename" : "vase-bluewhite.jpg",
			"desc" : "2015 Small Blue and White Vase, red clay made at La Mano"
		},
		"vase-blueyellow" : {
			"title" : "Blue and Yellow Vase",
			"filename" : "vase-blueyellow.jpg",
			"desc" : "2015 Small Blue and Yellow Vase, white clay made at La Mano"
		},
		"cups-small" : {
			"title" : "Small Cups",
			"filename" : "cups-small.jpg",
			"desc" : "2015 Small Blue and Green Cups, white clay made at La Mano"
		},		
		"vase-white" : {
			"title" : "Small White Vase",
			"filename" : "vase-white.jpg",
			"desc" : "2015 Small White Vase (or large cup), red clay made at La Mano"
		},
		"green-vase" : {
			"title" : "Green Vase",
			"filename" : "vase-green.jpg",
			"desc" : "2015 Green Vase, white clay made at La Mano"
		},
		"blue-bowl" : {
			"title" : "Blue Bowl",
			"filename" : "bowl-blue.jpg",
			"desc" : "2010 Blue Bowl, white clay"
		}, 
		"candlehouse-white" : {
			"title" : "White Candlehouse",
			"filename" : "candlehouse-white.jpg",
			"desc" : "2015 Small White Candlehouse, white clay made at La Mano"
		},
		"candlehouse" : {
			"title" : "Blue Candlehouse",
			"filename" : "candlehouse.jpg",
			"desc" : "2010 Blue Candlehouse, white clay"
		},
		"teapot-blue" : {
			"title" : "Blue Teapot",
			"filename" : "teapot-blue.jpg",
			"desc" : "2010 Blue Teapot, white clay"
		}, 
		"teapot-green" : {
			"title" : "Green Teapot",
			"filename" : "teapot-green.jpg",
			"desc" : "2010 Green Teapot, white clay"
		}, 
		"teapot-celedon" : {
			"title" : "Celedon Teapot",
			"filename" : "teapot-celedon.jpg",
			"desc" : "2010 Celedon Teapot, white clay"
		},
		"cups" : {
			"title" : "A Series of Cups",
			"filename" : "cups.jpg",
			"desc" : "2010 A series of cups, red clay"
		},
		"cup-blue" : {
			"title" : "Blue Cup", 
			"filename" : "cup-blue.jpg",
			"desc" : "2015 Blue Cup, white clay made at La Mano"
		},
		"lidded-pot" : {
			"title" : "Lidded Pot", 
			"filename" : "lidded-pot.jpg",
			"desc" : "2015 Lidded Pot, white clay made at La Mano"
		}

}

